%YAML 1.1
%TAG !u! tag:unity3d.com,2011:
--- !u!62 &6200000
PhysicsMaterial2D:
  m_ObjectHideFlags: 0
  m_CorrespondingSourceObject: {fileID: 0}
  m_PrefabInternal: {fileID: 0}
  m_Name: PlayerMaterial
  friction: 0.4
  bounciness: 0
