%YAML 1.1
%TAG !u! tag:unity3d.com,2011:
--- !u!114 &11400000
MonoBehaviour:
  m_ObjectHideFlags: 0
  m_CorrespondingSourceObject: {fileID: 0}
  m_PrefabInstance: {fileID: 0}
  m_PrefabAsset: {fileID: 0}
  m_GameObject: {fileID: 0}
  m_Enabled: 1
  m_EditorHideFlags: 0
  m_Script: {fileID: 11500000, guid: 3b4c4d210d238de4e9959da2d9128d32, type: 3}
  m_Name: TerrainModule_Simple_0000_SO
  m_EditorClassIdentifier: 
  prefab: {fileID: 4144087142418844758, guid: 68ab09ef5c5b4364991af4bd9126d624, type: 3}
  difficulty: 0
